<svg width="32" height="33" viewBox="0 0 32 33" fill="none" xmlns="http://www.w3.org/2000/svg">
<path d="M21.0753 14.3106L23.6559 24.0699H20.9892L19.2688 17.5491L15.5699 24.0699H12.6022L18.3226 13.9605L17.4194 10.4595L9.67742 24.1137H6.70968L16.5161 6.78333H19.0968L20.2151 11.0722H22.8817L21.0753 14.3106ZM32 16.28C32 7.26473 24.8172 0 16 0C7.1828 0 0 7.26473 0 16.28C0 25.2953 7.1828 32.56 16 32.56C24.8172 32.56 32 25.2515 32 16.28Z" fill="#E2E2E2"/>
</svg>
