{
  "_format": "hh-sol-artifact-1",
  "contractName": "Decimal",
  "sourceName": "contracts/interfaces/Decimal.sol",
  "abi": [],
  "bytecode": "0x60566037600b82828239805160001a607314602a57634e487b7160e01b600052600060045260246000fd5b30600052607381538281f3fe73000000000000000000000000000000000000000030146080604052600080fdfea264697066735822122050225655a3d743cbf6933ee07abffb65b60371f7b52ec243278822e7c06b4c8e64736f6c63430008040033",
  "deployedBytecode": "0x73000000000000000000000000000000000000000030146080604052600080fdfea264697066735822122050225655a3d743cbf6933ee07abffb65b60371f7b52ec243278822e7c06b4c8e64736f6c63430008040033",
  "linkReferences": {},
  "deployedLinkReferences": {}
}
